^C:\USERS\TONI\DOCUMENTS\ICAI6_2\ICAI6_2\MAIN.CPP|C:\USERS\TONI\DOCUMENTS\ICAI6_2\ICAI6_2\VECTORI.CPP
C:\USERS\TONI\DOCUMENTS\ICAI6_2\ICAI6_2\DEBUG\VC140.PDB
C:\USERS\TONI\DOCUMENTS\ICAI6_2\ICAI6_2\DEBUG\VC140.IDB
C:\USERS\TONI\DOCUMENTS\ICAI6_2\ICAI6_2\DEBUG\MAIN.OBJ
C:\USERS\TONI\DOCUMENTS\ICAI6_2\ICAI6_2\DEBUG\VECTORI.OBJ
^C:\USERS\TONI\DOCUMENTS\ICAI6_2\ICAI6_2\MAIN.CPP
C:\USERS\TONI\DOCUMENTS\ICAI6_2\ICAI6_2\DEBUG\VC140.PDB
C:\USERS\TONI\DOCUMENTS\ICAI6_2\ICAI6_2\DEBUG\VC140.IDB
C:\USERS\TONI\DOCUMENTS\ICAI6_2\ICAI6_2\DEBUG\MAIN.OBJ
^C:\USERS\TONI\DOCUMENTS\ICAI6_2\ICAI6_2\VECTORI.CPP
C:\USERS\TONI\DOCUMENTS\ICAI6_2\ICAI6_2\DEBUG\VC140.PDB
C:\USERS\TONI\DOCUMENTS\ICAI6_2\ICAI6_2\DEBUG\VC140.IDB
C:\USERS\TONI\DOCUMENTS\ICAI6_2\ICAI6_2\DEBUG\VECTORI.OBJ
