^C:\USERS\TONI\DOCUMENTS\VISUAL STUDIO 2015\PROJECTS\ICAI6_2\ICAI6_2\DEBUG\MAIN.OBJ
/OUT:"C:\USERS\TONI\DOCUMENTS\VISUAL STUDIO 2015\PROJECTS\ICAI6_2\DEBUG\ICAI6_2.EXE" /INCREMENTAL /NOLOGO KERNEL32.LIB USER32.LIB GDI32.LIB WINSPOOL.LIB COMDLG32.LIB ADVAPI32.LIB SHELL32.LIB OLE32.LIB OLEAUT32.LIB UUID.LIB ODBC32.LIB ODBCCP32.LIB /MANIFEST /MANIFESTUAC:"level='asInvoker' uiAccess='false'" /manifest:embed /DEBUG /PDB:"C:\USERS\TONI\DOCUMENTS\VISUAL STUDIO 2015\PROJECTS\ICAI6_2\DEBUG\ICAI6_2.PDB" /SUBSYSTEM:CONSOLE /TLBID:1 /DYNAMICBASE /NXCOMPAT /IMPLIB:"C:\USERS\TONI\DOCUMENTS\VISUAL STUDIO 2015\PROJECTS\ICAI6_2\DEBUG\ICAI6_2.LIB" /MACHINE:X86 DEBUG\MAIN.OBJ
^C:\USERS\TONI\DOCUMENTS\ICAI6_2\ICAI6_2\DEBUG\MAIN.OBJ|C:\USERS\TONI\DOCUMENTS\ICAI6_2\ICAI6_2\DEBUG\VECTORI.OBJ
/OUT:"C:\USERS\TONI\DOCUMENTS\ICAI6_2\DEBUG\ICAI6_2.EXE" /INCREMENTAL /NOLOGO KERNEL32.LIB USER32.LIB GDI32.LIB WINSPOOL.LIB COMDLG32.LIB ADVAPI32.LIB SHELL32.LIB OLE32.LIB OLEAUT32.LIB UUID.LIB ODBC32.LIB ODBCCP32.LIB /MANIFEST /MANIFESTUAC:"level='asInvoker' uiAccess='false'" /manifest:embed /DEBUG /PDB:"C:\USERS\TONI\DOCUMENTS\ICAI6_2\DEBUG\ICAI6_2.PDB" /SUBSYSTEM:CONSOLE /TLBID:1 /DYNAMICBASE /NXCOMPAT /IMPLIB:"C:\USERS\TONI\DOCUMENTS\ICAI6_2\DEBUG\ICAI6_2.LIB" /MACHINE:X86 DEBUG\MAIN.OBJDEBUG\VECTORI.OBJ
